com\hcl\globe\impl\RegistrationServlet.class
com\hcl\globe\HelloService.class
com\hcl\globe\impl\AddToCart.class
com\hcl\globe\impl\filters\LoggingFilter.class
com\hcl\globe\impl\HelloServiceImpl.class
com\hcl\globe\impl\Globe_servlet1.class
com\hcl\globe\package-info.class
com\hcl\globe\impl\Slots.class
com\hcl\globe\impl\TermsAndConditions.class
